<?xml version="1.0" encoding="UTF-8" standalone="no"?>
<svg
   version="1.1"
   inkscape:output_extension="org.inkscape.output.svg.inkscape"
   sodipodi:docname="interpolate-f11.svg"
   inkscape:version="1.3-beta (aacce78c12, 2023-06-06)"
   sodipodi:version="0.32"
   viewBox="0 0 305.22888 78.364143"
   id="svg15699"
   height="78.364143"
   width="305.22888"
   xmlns:inkscape="http://www.inkscape.org/namespaces/inkscape"
   xmlns:sodipodi="http://sodipodi.sourceforge.net/DTD/sodipodi-0.dtd"
   xmlns="http://www.w3.org/2000/svg"
   xmlns:svg="http://www.w3.org/2000/svg"
   xmlns:rdf="http://www.w3.org/1999/02/22-rdf-syntax-ns#"
   xmlns:cc="http://creativecommons.org/ns#"
   xmlns:dc="http://purl.org/dc/elements/1.1/">
  <defs
     id="defs15701" />
  <sodipodi:namedview
     inkscape:lockguides="true"
     id="base"
     pagecolor="#ffffff"
     bordercolor="#666666"
     borderopacity="1.0"
     inkscape:pageopacity="0.0"
     inkscape:pageshadow="2"
     inkscape:zoom="3.959798"
     inkscape:cx="120.33442"
     inkscape:cy="83.842661"
     inkscape:document-units="px"
     inkscape:current-layer="g2920"
     inkscape:document-rotation="0"
     showgrid="false"
     units="px"
     showguides="true"
     inkscape:guide-bbox="true"
     inkscape:window-width="1920"
     inkscape:window-height="1137"
     inkscape:window-x="0"
     inkscape:window-y="0"
     inkscape:window-maximized="1"
     inkscape:showpageshadow="2"
     inkscape:pagecheckerboard="0"
     inkscape:deskcolor="#d1d1d1" />
  <metadata
     id="metadata15704">
    <rdf:RDF>
      <cc:Work
         rdf:about="">
        <dc:format>image/svg+xml</dc:format>
        <dc:type
           rdf:resource="http://purl.org/dc/dcmitype/StillImage" />
        <dc:title />
      </cc:Work>
    </rdf:RDF>
  </metadata>
  <g
     id="layer1"
     inkscape:groupmode="layer"
     inkscape:label="Layer 1">
    <g
       transform="translate(10.003909)"
       id="g2920">
      <path
         inkscape:connector-curvature="0"
         style="fill:#00ff00;fill-opacity:1;stroke:#17a500;stroke-width:0.868842;stroke-linejoin:round;stroke-miterlimit:4;stroke-opacity:1"
         id="path5198"
         d="m 247.59911,27.441174 h -10.65338 l -5.32669,-9.226101 5.32669,-9.2261 h 10.65338 l 5.32669,9.2261 z" />
      <path
         inkscape:connector-curvature="0"
         style="fill:#00ff00;fill-opacity:1;stroke:#17a500;stroke-width:0.796746;stroke-linejoin:round;stroke-miterlimit:4;stroke-opacity:1"
         d="m 22.998502,28.619174 c 0,0 -3.49016,-3.2745 -3.621,-3.2745 -0.06542,0 -0.78972,4.8295 -0.8715,4.8295 -0.08177,0 -2.3935,-4.1658 -2.48073,-4.1658 -0.08723,0 -2.28311,4.3929 -2.36489,4.3929 -0.08177,0 -0.98642,-4.6493 -1.05184,-4.6493 -0.13084,0 -3.581001,3.5263 -3.581001,3.5263 0,0 0.605319,-4.7533 0.539898,-4.8666 -0.032709,-0.0566 -4.358885,2.1917 -4.399772,2.1209 -0.040887,-0.0708 1.978166,-4.394601 1.934554,-4.470101 -0.043615,-0.0756 -4.880586,0.725 -4.921473,0.6542 -0.040887,-0.0708 3.195449,-3.5399 3.162738,-3.5965 -0.065419,-0.1133 -4.938528,-0.8368 -4.938528,-0.8368 0,0 4.20941,-2.3001 4.274831,-2.4134 0.032709,-0.0567 -4.322017,-2.2314 -4.28113,-2.3022 0.020444,-0.0355 4.690886,-0.9004 4.712352,-0.9375 0.021466,-0.0372 -3.483,-3.4379 -3.461193,-3.4757 0.021806,-0.0378 4.721344,0.5734 4.742809,0.5362 0.021467,-0.0372 -2.271889,-4.3618 -2.251445,-4.3972 0.040887,-0.0708 4.327303,1.9258 4.360015,1.8691 0.065418,-0.1133 -0.767102,-4.9822 -0.767102,-4.9822 0,0 3.490157,3.2745 3.620997,3.2745 0.06542,0 0.78972,-4.8295 0.87149,-4.8295 0.08178,0 2.39351,4.1658 2.48074,4.1658 0.08723,0 2.28311,-4.3929 2.36488,-4.3929 0.08178,0 0.98643,4.6493 1.05185,4.6493 0.13084,0 3.581,-3.5263 3.581,-3.5263 0,0 -0.60532,4.7534 -0.5399,4.8667 0.03271,0.0566 4.35889,-2.1918 4.39977,-2.121 0.04089,0.0709 -1.97817,4.3946 -1.93455,4.4702 0.02181,0.0377 4.83697,-0.8006 4.85844,-0.7634 0.02146,0.0372 -3.23191,3.4767 -3.21147,3.5121 0.04089,0.0708 4.90855,0.7849 4.94126,0.8415 0.06542,0.1133 -4.05677,2.4134 -4.05677,2.4134 0,0 4.34928,2.1842 4.28386,2.2975 -0.03271,0.0567 -4.72019,0.9511 -4.76108,1.0219 -0.02044,0.0354 3.48471,3.4349 3.46324,3.4721 -0.02147,0.0372 -4.721,-0.5739 -4.74281,-0.5362 -0.04361,0.0755 2.22726,4.439101 2.18637,4.509901 -0.04089,0.0709 -4.3273,-1.9257 -4.36002,-1.8691 -0.06541,0.1134 0.76711,4.9822 0.76711,4.9822 0,0 0,0 0,0"
         id="path5921" />
      <g
         id="g6545"
         transform="matrix(0.5218716,0,0,0.5218716,-9.217538,-573.46675)">
        <path
           inkscape:connector-curvature="0"
           style="fill:#00ff00;fill-opacity:1;stroke:#17a500;stroke-width:1.66486;stroke-linejoin:round;stroke-miterlimit:4;stroke-opacity:1"
           id="path6547"
           d="m 430.62483,1151.7704 c 0,0 -1.99938,-0.8964 -3.61314,-0.8964 -0.78908,0 -1.88605,1.322 -2.87515,1.322 -0.85275,0 -2.3661,-1.1403 -3.28296,-1.1403 -0.91711,0 -2.42391,1.2025 -3.32667,1.2025 -0.91481,0 -2.02886,-1.2727 -2.84785,-1.2727 -1.07379,0 -2.94652,0.9653 -3.67954,0.9653 -1.0478,0 -1.63597,-0.4764 -1.59202,-0.8596 0.0287,-0.25 -0.12097,-0.7569 -0.42257,-1.2793 -0.32439,-0.5618 -1.96552,-0.7377 -2.51618,-1.6915 -0.40987,-0.7099 -0.30095,-2.6621 -0.77802,-3.4884 -0.44423,-0.7694 -2.21904,-1.331 -2.68035,-2.13 -0.44638,-0.7731 0.005,-2.4755 -0.42082,-3.2129 -0.49887,-0.8641 -2.29008,-1.8541 -2.69714,-2.5592 -0.55483,-0.9609 0.13587,-2.3901 -0.1475,-2.9429 -0.23915,-0.4253 -0.528,-0.745 -0.72188,-0.8459 -0.34856,-0.1815 -0.48198,-1.0487 0.0939,-2.0461 0.36328,-0.6292 2.08349,-1.6311 2.57937,-2.49 0.41781,-0.7237 -0.0954,-2.4272 0.36946,-3.2324 0.42753,-0.7405 2.1464,-1.3222 2.57909,-2.0716 0.46079,-0.7981 0.28155,-2.7588 0.70936,-3.4998 0.47683,-0.8259 2.08381,-1.0304 2.46761,-1.6952 0.82025,-1.4207 1.15557,-3.5119 1.12976,-3.6634 -0.002,-0.011 0.008,-0.016 0.0293,-0.016 0.18778,0 2.14284,0.8964 3.61258,0.8964 0.79027,0 1.88689,-1.322 2.87461,-1.322 0.85327,0 2.36658,1.1403 3.28295,1.1403 0.91769,0 2.42462,-1.2025 3.32706,-1.2025 0.91573,0 2.03016,1.2727 2.84876,1.2727 1.07566,0 2.94848,-0.9653 3.67879,-0.9653 1.02931,0 1.60621,0.4631 1.56243,0.8433 -0.0296,0.2572 0.12528,0.7839 0.43701,1.3239 0.32691,0.5662 1.96755,0.7412 2.51597,1.6911 0.41039,0.7108 0.30153,2.6632 0.77831,3.489 0.4344,0.7524 2.19879,1.2959 2.65029,2.0779 0.4379,0.7585 -0.0213,2.4472 0.39826,3.1739 0.49207,0.8523 2.28184,1.8398 2.69806,2.5607 0.54249,0.9396 -0.14431,2.3341 0.15782,2.8574 0.27616,0.4784 0.6143,0.8445 0.83203,0.9562 0.34458,0.1767 0.45367,0.9866 -0.0944,1.9359 -0.36714,0.636 -2.09893,1.6578 -2.61054,2.544 -0.41648,0.7213 0.0972,2.4241 -0.36794,3.2297 -0.42715,0.7399 -2.14624,1.3219 -2.57969,2.0727 -0.47341,0.82 -0.30724,2.8033 -0.74712,3.5652 -0.47647,0.8253 -2.08357,1.03 -2.46815,1.6961 -0.83035,1.4382 -1.14307,3.7074 -1.14307,3.7074 0,0 0,0 0,0" />
        <path
           inkscape:connector-curvature="0"
           style="fill:#00ff00;fill-opacity:1;stroke:#17a500;stroke-width:1.66486;stroke-linejoin:round;stroke-miterlimit:4;stroke-opacity:1"
           id="path6549"
           d="m 369.14265,1152.0928 c 0,0 -2.78078,-1.7927 -4.16737,-1.7927 -0.67845,0 -1.82392,2.6441 -2.67428,2.6441 -0.73674,0 -2.73615,-2.2807 -3.52805,-2.2807 -0.79212,0 -2.74907,2.405 -3.52749,2.405 -0.78845,0 -2.00575,-2.5454 -2.70913,-2.5454 -0.93661,0 -3.59907,1.9306 -4.20992,1.9306 -0.87317,0 -1.29253,-0.9529 -1.20463,-1.7192 0.0574,-0.5 -0.0422,-1.1678 -0.30177,-1.6174 -0.28077,-0.4863 -3.03,0.085 -3.50195,-0.7323 -0.35461,-0.6142 0.38097,-3.6219 -0.0305,-4.3346 -0.38412,-0.6653 -3.40788,-0.8776 -3.80536,-1.566 -0.38504,-0.6669 1.02462,-3.1935 0.65938,-3.8261 -0.43662,-0.7562 -3.48559,-1.8123 -3.8248,-2.3998 -0.46236,-0.8009 1.45756,-2.7263 1.24231,-3.2232 -0.19556,-0.3609 -0.61154,-0.7202 -0.9993,-0.9221 -0.69712,-0.3628 -1.37955,-1.3775 -0.89127,-2.2232 0.30925,-0.5357 3.23433,-1.6468 3.65442,-2.3744 0.35504,-0.6149 -1.19187,-3.1206 -0.79749,-3.8036 0.36324,-0.6292 3.29649,-0.9188 3.66392,-1.5551 0.39085,-0.677 -0.49094,-3.6921 -0.12789,-4.3209 0.41041,-0.7108 3.11848,-0.2436 3.44877,-0.8157 0.70307,-1.2177 0.75131,-4.3222 0.69969,-4.6251 -0.004,-0.021 0.004,-0.032 0.0212,-0.032 0.15648,0 2.90033,1.7927 4.1669,1.7927 0.67945,0 1.82462,-2.6441 2.67383,-2.6441 0.73717,0 2.73655,2.2807 3.52805,2.2807 0.79259,0 2.74965,-2.405 3.5278,-2.405 0.78923,0 2.00683,2.5454 2.70989,2.5454 0.93817,0 3.6007,-1.9305 4.2093,-1.9305 0.85775,0 1.26971,0.9261 1.18215,1.6865 -0.0592,0.5143 0.0434,1.2091 0.31162,1.6736 0.28288,0.49 3.0317,-0.082 3.50178,0.7319 0.35505,0.615 -0.38048,3.6228 0.0308,4.3351 0.36897,0.6391 3.37708,0.8243 3.76018,1.4878 0.37177,0.644 -1.04988,3.1497 -0.69374,3.7666 0.42312,0.7328 3.46914,1.7838 3.82644,2.4027 0.47297,0.8192 -1.41584,2.7158 -1.16406,3.1519 0.23013,0.3986 0.72017,0.8083 1.15562,1.0317 0.68916,0.3534 1.2967,1.2989 0.82716,2.1121 -0.3164,0.5481 -3.25657,1.6853 -3.69597,2.4463 -0.35359,0.6125 1.19392,3.1171 0.79942,3.8004 -0.36281,0.6284 -3.29625,0.9182 -3.66442,1.5559 -0.40844,0.7075 0.45526,3.7538 0.0756,4.4114 -0.41012,0.7103 -3.11829,0.2432 -3.44921,0.8164 -0.71286,1.2347 -0.70758,4.6806 -0.70758,4.6806 0,0 0,0 0,0" />
        <path
           inkscape:connector-curvature="0"
           style="fill:#00ff00;fill-opacity:1;stroke:#17a500;stroke-width:1.66486;stroke-linejoin:round;stroke-miterlimit:4;stroke-opacity:1"
           id="path6551"
           d="m 307.66046,1152.4153 c 0,0 -3.56217,-2.6891 -4.72158,-2.6891 -0.56784,0 -1.76179,3.9661 -2.47341,3.9661 -0.62074,0 -3.1062,-3.421 -3.77316,-3.421 -0.66712,0 -3.07422,3.6075 -3.7283,3.6075 -0.6621,0 -1.98263,-3.8181 -2.5704,-3.8181 -0.79943,0 -4.25163,2.8959 -4.74031,2.8959 -0.69853,0 -0.94908,-1.4293 -0.81723,-2.5787 0.086,-0.7502 0.0366,-1.5788 -0.18098,-1.9556 -0.23715,-0.4108 -4.09448,0.908 -4.48771,0.227 -0.29936,-0.5185 1.06288,-4.5818 0.71697,-5.1809 -0.32401,-0.5612 -4.59672,-0.4242 -4.93037,-1.0021 -0.3237,-0.5607 2.0443,-3.9113 1.73958,-4.4392 -0.37437,-0.6484 -4.6811,-1.7705 -4.95247,-2.2405 -0.36989,-0.6407 2.77925,-3.0625 2.63212,-3.5035 -0.15196,-0.2964 -0.69507,-0.6954 -1.27671,-0.9981 -1.04568,-0.5443 -2.27712,-1.7064 -1.87643,-2.4004 0.25524,-0.4421 4.38519,-1.6624 4.72949,-2.2588 0.29225,-0.5062 -2.28832,-3.8139 -1.96446,-4.3749 0.29895,-0.5178 4.44659,-0.5152 4.74876,-1.0386 0.3209,-0.5558 -1.26342,-4.6252 -0.96515,-5.1418 0.344,-0.5958 4.15317,0.5431 4.42993,0.064 0.5859,-1.0148 0.34705,-5.1324 0.26963,-5.5868 -0.005,-0.032 -0.001,-0.048 0.0131,-0.048 0.12518,0 3.65782,2.6891 4.72121,2.6891 0.56864,0 1.76235,-3.9661 2.47306,-3.9661 0.62107,0 3.10652,3.421 3.77314,3.421 0.66751,0 3.0747,-3.6075 3.72856,-3.6075 0.66272,0 1.98349,3.8181 2.57102,3.8181 0.80067,0 4.25292,-2.8958 4.7398,-2.8958 0.6862,0 0.93321,1.3892 0.80187,2.5298 -0.0888,0.7715 -0.0384,1.6342 0.18624,2.0234 0.23884,0.4137 4.09584,-0.9058 4.48757,-0.2273 0.29971,0.5192 -1.06249,4.5824 -0.71678,5.1812 0.30353,0.5257 4.55536,0.3526 4.87007,0.8977 0.30565,0.5294 -2.07848,3.8521 -1.78574,4.3592 0.35417,0.6134 4.65645,1.7279 4.95482,2.2446 0.40345,0.6988 -2.68737,3.0976 -2.48595,3.4465 0.18411,0.3189 0.82604,0.7721 1.47923,1.1071 1.03373,0.5302 2.13972,1.6112 1.74872,2.2884 -0.26565,0.4602 -4.4142,1.7127 -4.78139,2.3487 -0.2907,0.5035 2.2906,3.81 1.96678,4.3709 -0.29848,0.517 -4.44626,0.5147 -4.74916,1.0393 -0.34346,0.5949 1.21778,4.7043 0.89841,5.2574 -0.34376,0.5954 -4.153,-0.5434 -4.43028,-0.063 -0.59536,1.0312 -0.27209,5.6538 -0.27209,5.6538 0,0 0,0 0,0" />
        <path
           inkscape:connector-curvature="0"
           style="fill:#00ff00;fill-opacity:1;stroke:#17a500;stroke-width:1.66486;stroke-linejoin:round;stroke-miterlimit:4;stroke-opacity:1"
           id="path6553"
           d="m 246.17828,1152.7378 c 0,0 -4.34357,-3.5854 -5.27581,-3.5854 -0.45722,0 -1.69965,5.2881 -2.27254,5.2881 -0.50473,0 -3.47625,-4.5614 -4.01825,-4.5614 -0.54213,0 -3.39938,4.81 -3.92911,4.81 -0.53575,0 -1.95952,-5.0908 -2.43169,-5.0908 -0.66225,0 -4.90418,3.8611 -5.27069,3.8611 -0.5239,0 -0.60564,-1.9056 -0.42984,-3.4382 0.11473,-1.0002 0.11537,-1.9897 -0.0602,-2.2938 -0.19354,-0.3352 -5.15897,1.731 -5.47347,1.1863 -0.24411,-0.4228 1.74479,-5.5416 1.46447,-6.0271 -0.26391,-0.4571 -5.78557,0.029 -6.05539,-0.4381 -0.26237,-0.4545 3.06399,-4.6293 2.81977,-5.0523 -0.31211,-0.5406 -5.87659,-1.7288 -6.08012,-2.0813 -0.27742,-0.4805 4.10093,-3.3987 4.02192,-3.7837 -0.10837,-0.2321 -0.7786,-0.6706 -1.55412,-1.0742 -1.39424,-0.7257 -3.17469,-2.0353 -2.86158,-2.5776 0.20122,-0.3485 5.53603,-1.6781 5.80454,-2.1431 0.22947,-0.3975 -3.38475,-4.5074 -3.13141,-4.9462 0.23466,-0.4065 5.59668,-0.1118 5.83359,-0.5221 0.25096,-0.4347 -2.0359,-5.5584 -1.80241,-5.9628 0.27759,-0.4808 5.18785,1.3298 5.41109,0.9432 0.46873,-0.8119 -0.0572,-5.9428 -0.16044,-6.5487 -0.007,-0.042 -0.006,-0.064 0.005,-0.064 0.0939,0 4.4153,3.5854 5.27553,3.5854 0.45782,0 1.70007,-5.2881 2.27227,-5.2881 0.50499,0 3.47649,4.5614 4.01825,4.5614 0.54241,0 3.39973,-4.81 3.9293,-4.81 0.53621,0 1.96017,5.0908 2.43215,5.0908 0.66318,0 4.90515,-3.8612 5.27031,-3.8612 0.51465,0 0.59671,1.8523 0.42159,3.3732 -0.11843,1.0285 -0.1203,2.0593 0.0608,2.373 0.1948,0.3374 5.15999,-1.7292 5.47337,-1.1865 0.24437,0.4234 -1.7445,5.5421 -1.46432,6.0274 0.23809,0.4123 5.73365,-0.1191 5.97996,0.3075 0.23952,0.4149 -3.10709,4.5546 -2.87774,4.9519 0.28521,0.494 5.84375,1.6719 6.0832,2.0866 0.33393,0.5784 -3.9589,3.4793 -3.80783,3.741 0.13807,0.2391 0.9319,0.736 1.80282,1.1826 1.37831,0.7069 2.98275,1.9234 2.6703,2.4646 -0.21491,0.3723 -5.57183,1.7401 -5.86681,2.251 -0.22783,0.3947 3.38728,4.5031 3.13412,4.9415 -0.23414,0.4056 -5.59626,0.1111 -5.83388,0.5226 -0.27849,0.4824 1.98029,5.6548 1.72118,6.1036 -0.27741,0.4804 -5.18773,-1.3301 -5.41136,-0.9428 -0.47786,0.8277 0.16341,6.6271 0.16341,6.6271 0,0 0,0 0,0" />
        <path
           inkscape:connector-curvature="0"
           style="fill:#00ff00;fill-opacity:1;stroke:#17a500;stroke-width:1.66486;stroke-linejoin:round;stroke-miterlimit:4;stroke-opacity:1"
           id="path6555"
           d="m 184.6961,1153.0603 c 0,0 -5.12498,-4.4818 -5.83004,-4.4818 -0.3466,0 -1.63751,6.6101 -2.07167,6.6101 -0.38872,0 -3.8463,-5.7017 -4.26335,-5.7017 -0.41713,0 -3.72453,6.0125 -4.12992,6.0125 -0.4094,0 -1.9364,-6.3635 -2.29297,-6.3635 -0.52507,0 -5.55673,4.8264 -5.80107,4.8264 -0.34927,0 -0.26219,-2.3821 -0.0424,-4.2978 0.14341,-1.2502 0.19414,-2.4006 0.0606,-2.6319 -0.14992,-0.2597 -6.22345,2.5539 -6.45924,2.1455 -0.18885,-0.3271 2.4267,-6.5013 2.21197,-6.8732 -0.2038,-0.353 -6.9744,0.4825 -7.18041,0.1257 -0.20102,-0.3482 4.08369,-5.3472 3.89998,-5.6654 -0.24986,-0.4327 -7.0721,-1.6869 -7.20779,-1.922 -0.18494,-0.3203 5.42262,-3.7349 5.41174,-4.0639 -0.0648,-0.1677 -0.86214,-0.6458 -1.83154,-1.1504 -1.7428,-0.9071 -4.07226,-2.364 -3.84674,-2.7546 0.14721,-0.255 6.68688,-1.6939 6.8796,-2.0276 0.16669,-0.2888 -4.48118,-5.2008 -4.29836,-5.5175 0.17037,-0.2951 6.74676,0.2917 6.91841,-0.01 0.18102,-0.3136 -2.80838,-6.4916 -2.63966,-6.7838 0.21117,-0.3658 6.22253,2.1166 6.39226,1.8226 0.35155,-0.6089 -0.46146,-6.753 -0.59051,-7.5104 -0.009,-0.053 -0.0102,-0.081 -0.003,-0.081 0.0626,0 5.17279,4.4818 5.82985,4.4818 0.34699,0 1.63779,-6.6101 2.07149,-6.6101 0.38889,0 3.84646,5.7017 4.26334,5.7017 0.41733,0 3.72478,-6.0125 4.13005,-6.0125 0.40971,0 1.93684,6.3635 2.29328,6.3635 0.52569,0 5.55738,-4.8265 5.80081,-4.8265 0.34311,0 0.26022,2.3154 0.0413,4.2165 -0.14804,1.2857 -0.20216,2.4844 -0.0645,2.7228 0.15076,0.2611 6.22413,-2.5528 6.45917,-2.1457 0.18902,0.3275 -2.42651,6.5017 -2.21187,6.8735 0.17266,0.299 6.91193,-0.5908 7.08986,-0.2827 0.17338,0.3004 -4.1357,5.2571 -3.96974,5.5446 0.21625,0.3746 7.03104,1.6159 7.21157,1.9286 0.2644,0.4579 -5.23043,3.861 -5.12972,4.0354 0.0921,0.1595 1.03777,0.6999 2.12642,1.2582 1.72289,0.8836 3.82578,2.2357 3.59188,2.6408 -0.16417,0.2844 -6.72947,1.7675 -6.95224,2.1534 -0.16494,0.2857 4.48396,5.196 4.30148,5.512 -0.1698,0.2942 -6.74627,-0.2925 -6.91861,0.01 -0.21352,0.3699 2.7428,6.6053 2.54394,6.9497 -0.21106,0.3656 -6.22245,-2.1167 -6.39243,-1.8224 -0.36036,0.6242 0.59891,7.6004 0.59891,7.6004 0,0 0,0 0,0" />
        <path
           inkscape:connector-curvature="0"
           style="fill:#00ff00;fill-opacity:1;stroke:#17a500;stroke-width:1.66486;stroke-linejoin:round;stroke-miterlimit:4;stroke-opacity:1"
           id="path6557"
           d="m 123.21392,1153.3827 c 0,0 -5.90638,-5.3781 -6.38426,-5.3781 -0.23598,0 -1.57539,7.9322 -1.87081,7.9322 -0.27271,0 -4.21634,-6.8421 -4.50844,-6.8421 -0.29214,0 -4.0497,7.215 -4.33074,7.215 -0.28304,0 -1.91328,-7.6362 -2.15424,-7.6362 -0.3879,0 -6.209288,5.7917 -6.331459,5.7917 -0.174633,0 0.08125,-2.8585 0.344951,-5.1574 0.172093,-1.5002 0.272922,-2.8116 0.181403,-2.9701 -0.106295,-0.1841 -7.287928,3.3768 -7.444995,3.1048 -0.133599,-0.2314 3.108612,-7.4611 2.95946,-7.7194 -0.143684,-0.2489 -8.163243,0.9359 -8.305417,0.6897 -0.139686,-0.242 5.103369,-6.0651 4.980177,-6.2785 -0.187607,-0.325 -8.267606,-1.6452 -8.335449,-1.7627 -0.09247,-0.1602 6.744304,-4.0712 6.80154,-4.3443 -0.02119,-0.1032 -0.945674,-0.6209 -2.108951,-1.2264 -2.091356,-1.0885 -4.969828,-2.6929 -4.831896,-2.9318 0.09319,-0.1615 7.837733,-1.7095 7.954658,-1.912 0.103913,-0.18 -5.57762,-5.8942 -5.465316,-6.0887 0.106077,-0.1838 7.896856,0.6952 8.003247,0.5109 0.111077,-0.1924 -3.580866,-7.4248 -3.476919,-7.6048 0.14476,-0.2507 7.257212,2.9034 7.373414,2.7021 0.234385,-0.406 -0.865711,-7.5632 -1.020566,-8.4721 -0.01076,-0.063 -0.01471,-0.097 -0.01119,-0.097 0.0313,0 5.930288,5.3781 6.384168,5.3781 0.23618,0 1.57552,-7.9322 1.87072,-7.9322 0.27279,0 4.21643,6.8421 4.50844,6.8421 0.29223,0 4.04981,-7.215 4.3308,-7.215 0.2832,0 1.9135,7.6362 2.1544,7.6362 0.3882,0 6.20961,-5.7917 6.33132,-5.7917 0.17156,0 -0.0763,2.7783 -0.33896,5.0597 -0.17764,1.5428 -0.28401,2.9096 -0.18991,3.0725 0.10672,0.1849 7.28827,-3.3762 7.44496,-3.1049 0.13369,0.2317 -3.10852,7.4613 -2.95941,7.7196 0.10722,0.1857 8.09022,-1.0624 8.19975,-0.8727 0.10726,0.1858 -5.16431,5.9595 -5.06174,6.1372 0.1473,0.2551 8.21835,1.56 8.33995,1.7705 0.19488,0.3376 -6.50196,4.2428 -6.4516,4.33 0.046,0.08 1.14364,0.6637 2.45001,1.3337 2.06747,1.0603 4.66882,2.5479 4.51345,2.817 -0.11342,0.1965 -7.8871,1.795 -8.03766,2.0557 -0.10205,0.1769 5.58064,5.8891 5.46884,6.0827 -0.10547,0.1827 -7.89629,-0.6962 -8.00335,-0.5108 -0.14854,0.2573 3.50531,7.5557 3.36671,7.7958 -0.1447,0.2506 -7.25717,-2.9035 -7.3735,-2.702 -0.24286,0.4207 1.03441,8.5735 1.03441,8.5735 0,0 0,0 0,0" />
      </g>
      <text
         xml:space="preserve"
         style="font-style:normal;font-variant:normal;font-weight:normal;font-stretch:normal;font-size:6px;line-height:1.25;font-family:'Liberation Sans', Arial, sans-serif;-inkscape-font-specification:'sans-serif Normal';font-variant-ligatures:normal;font-variant-caps:normal;font-variant-numeric:normal;font-variant-east-asian:normal;fill:#000000;fill-opacity:1;stroke:none;stroke-width:1px;stroke-linecap:butt;stroke-linejoin:miter;stroke-opacity:1"
         x="-0.59277618"
         y="36.282593"
         id="text83"><tspan
           sodipodi:role="line"
           id="tspan85"
           x="-0.59277618"
           y="36.282593">Exponent: 1.0</tspan><tspan
           sodipodi:role="line"
           x="-0.59277618"
           y="43.878525"
           id="tspan87">Interpolation Steps: 6</tspan><tspan
           sodipodi:role="line"
           x="-0.59277618"
           y="51.474457"
           id="tspan93">Interpolation Method: Split paths into segments of equal lengths</tspan><tspan
           sodipodi:role="line"
           x="-0.59277618"
           y="59.070393"
           id="tspan2">Duplicate Endpaths: unchecked   </tspan><tspan
           sodipodi:role="line"
           x="-0.59277618"
           y="66.666321"
           id="tspan3">Interpolate Style: unchecked  </tspan><tspan
           sodipodi:role="line"
           x="-0.59277618"
           y="74.26226"
           id="tspan4">Use Z-order: unchecked</tspan></text>
    </g>
  </g>
</svg>
