<?xml version="1.0" encoding="UTF-8" standalone="no"?>
<svg
   version="1.1"
   inkscape:output_extension="org.inkscape.output.svg.inkscape"
   sodipodi:docname="interpolate-f04.svg"
   inkscape:version="1.3-beta (aacce78c12, 2023-06-06)"
   sodipodi:version="0.32"
   viewBox="0 0 303.65213 89.70739"
   id="svg15699"
   height="89.70739"
   width="303.65213"
   xmlns:inkscape="http://www.inkscape.org/namespaces/inkscape"
   xmlns:sodipodi="http://sodipodi.sourceforge.net/DTD/sodipodi-0.dtd"
   xmlns="http://www.w3.org/2000/svg"
   xmlns:svg="http://www.w3.org/2000/svg"
   xmlns:rdf="http://www.w3.org/1999/02/22-rdf-syntax-ns#"
   xmlns:cc="http://creativecommons.org/ns#"
   xmlns:dc="http://purl.org/dc/elements/1.1/">
  <defs
     id="defs15701" />
  <sodipodi:namedview
     inkscape:lockguides="true"
     id="base"
     pagecolor="#ffffff"
     bordercolor="#666666"
     borderopacity="1.0"
     inkscape:pageopacity="0.0"
     inkscape:pageshadow="2"
     inkscape:zoom="3.959798"
     inkscape:cx="127.15295"
     inkscape:cy="61.871843"
     inkscape:document-units="px"
     inkscape:current-layer="g2967"
     inkscape:document-rotation="0"
     showgrid="false"
     units="px"
     showguides="true"
     inkscape:guide-bbox="true"
     inkscape:window-width="1920"
     inkscape:window-height="1137"
     inkscape:window-x="0"
     inkscape:window-y="0"
     inkscape:window-maximized="1"
     inkscape:showpageshadow="2"
     inkscape:pagecheckerboard="0"
     inkscape:deskcolor="#d1d1d1" />
  <metadata
     id="metadata15704">
    <rdf:RDF>
      <cc:Work
         rdf:about="">
        <dc:format>image/svg+xml</dc:format>
        <dc:type
           rdf:resource="http://purl.org/dc/dcmitype/StillImage" />
        <dc:title />
      </cc:Work>
    </rdf:RDF>
  </metadata>
  <g
     id="layer1"
     inkscape:groupmode="layer"
     inkscape:label="Layer 1">
    <g
       transform="translate(10.003909,-0.4247481)"
       id="g2967">
      <path
         inkscape:connector-curvature="0"
         style="fill:#00ccff;fill-opacity:1;stroke:#2e75ac;stroke-width:4.04816;stroke-linejoin:round;stroke-miterlimit:4;stroke-opacity:1"
         d="m 263.70539,9.7550269 c 0,0 -8.57362,13.7178001 -13.97296,22.3567001 -2.48152,3.9705 -4.29254,6.8681 -4.29254,6.8681 0,0 -4.93936,-7.903 -9.68096,-15.4896 -4.37652,-7.0024 -8.58455,-13.7352001 -8.58455,-13.7352001 0,0 4.41067,0 10.16682,0 10.80961,0 26.36419,0 26.36419,0 0,0 0,0 0,0"
         id="path2532" />
      <g
         id="g2606"
         transform="matrix(0.5218716,0,0,0.5218716,-7.8861822,-205.17)">
        <path
           inkscape:connector-curvature="0"
           style="fill:#00ccff;fill-opacity:1;stroke:#2e75ac;stroke-width:7.757;stroke-linejoin:round;stroke-miterlimit:4;stroke-opacity:1"
           id="path2534"
           d="m 453.78578,409.83503 c 2.77,0 -9.08167,24.76067 -17.94975,41.7196 -4.07576,7.36064 -7.25504,12.90966 -7.61759,13.60287 -0.83381,1.59431 -10.61469,-10.30264 -20.33306,-22.7631 -8.89752,-11.50107 -17.31268,-23.40857 -18.21362,-24.70983 -0.55903,-0.80742 6.35827,-1.7889 15.81241,-2.84954 17.75413,-2.77 45.53161,-5 48.30161,-5 0,0 0,0 0,0" />
        <path
           inkscape:connector-curvature="0"
           style="fill:#00ccff;fill-opacity:1;stroke:#2e75ac;stroke-width:7.757;stroke-linejoin:round;stroke-miterlimit:4;stroke-opacity:1"
           id="path2536"
           d="m 387.15312,407.83503 c 5.54,0 -1.73472,23.23556 -9.12479,40.59967 -3.39647,7.11319 -6.28478,12.65884 -7.00987,14.04526 -1.66763,3.18862 -11.76469,-5.46173 -22.11567,-15.84545 -9.40885,-9.58423 -18.17582,-20.49788 -19.97771,-23.1004 -1.11805,-1.61485 4.26492,-3.57779 12.14337,-5.69908 14.79511,-5.54 40.54467,-10 46.08467,-10 0,0 0,0 0,0" />
        <path
           inkscape:connector-curvature="0"
           style="fill:#00ccff;fill-opacity:1;stroke:#2e75ac;stroke-width:7.757;stroke-linejoin:round;stroke-miterlimit:4;stroke-opacity:1"
           id="path2538"
           d="m 320.52047,405.83503 c 8.31,0 5.61222,21.71045 -0.29984,39.47974 -2.71717,6.86574 -5.31453,12.40802 -6.40216,14.48764 -2.50144,4.78294 -12.91467,-0.62082 -23.89827,-8.9278 -9.92018,-7.66737 -19.03896,-17.58718 -21.74179,-21.49096 -1.67709,-2.42227 2.17156,-5.36669 8.47432,-8.54862 11.83609,-8.31 35.55774,-15 43.86774,-15 0,0 0,0 0,0" />
        <path
           inkscape:connector-curvature="0"
           style="fill:#00ccff;fill-opacity:1;stroke:#2e75ac;stroke-width:7.757;stroke-linejoin:round;stroke-miterlimit:4;stroke-opacity:1"
           id="path2540"
           d="m 253.88781,403.83503 c 11.08,0 12.95917,20.18534 8.52513,38.3598 -2.03788,6.61829 -4.34428,12.1572 -5.79445,14.93004 -3.33526,6.37725 -14.06466,4.22008 -25.68088,-2.01015 -10.4315,-5.75053 -19.9021,-14.67649 -23.50587,-19.88153 -2.23612,-3.22969 0.0782,-7.15558 4.80527,-11.39816 8.87706,-11.08 30.5708,-20 41.6508,-20 0,0 0,0 0,0" />
        <path
           inkscape:connector-curvature="0"
           style="fill:#00ccff;fill-opacity:1;stroke:#2e75ac;stroke-width:7.757;stroke-linejoin:round;stroke-miterlimit:4;stroke-opacity:1"
           id="path2542"
           d="m 187.25516,401.83503 c 13.85,0 20.30611,18.66022 17.35008,37.23987 -1.35858,6.37084 -3.37402,11.90638 -5.18674,15.37243 -4.16907,7.97155 -15.21464,9.06098 -27.46347,4.9075 -10.94284,-3.83369 -20.76525,-11.7658 -25.26996,-18.2721 -2.79515,-4.03712 -2.01516,-8.94448 1.13622,-14.2477 5.91804,-13.85 25.58387,-25 39.43387,-25 0,0 0,0 0,0" />
        <path
           inkscape:connector-curvature="0"
           style="fill:#00ccff;fill-opacity:1;stroke:#2e75ac;stroke-width:7.757;stroke-linejoin:round;stroke-miterlimit:4;stroke-opacity:1"
           id="path2544"
           d="m 120.6225,399.83503 c 16.62,0 27.65306,17.13511 26.17505,36.11993 -0.6793,6.12339 -2.40377,11.65557 -4.57903,15.81483 -5.00289,9.56586 -16.36463,13.90189 -29.24608,11.82514 -11.45416,-1.91684 -21.628391,-8.85509 -27.034048,-16.66266 -3.354175,-4.84454 -4.108515,-10.73337 -2.532825,-17.09724 2.959021,-16.62 20.596933,-30 37.216933,-30 0,0 0,0 0,0" />
      </g>
      <path
         inkscape:connector-curvature="0"
         style="fill:#00ccff;fill-opacity:1;stroke:#2e75ac;stroke-width:4.04816;stroke-linejoin:round;stroke-miterlimit:4;stroke-opacity:1"
         d="m 20.289584,2.4488269 c 10.119089,0 18.265504,8.1464001 18.265504,18.2655001 0,3.0665 -0.74811,5.9518 -2.07252,8.4842 -3.046009,5.8241 -9.14038,9.7813 -16.192984,9.7813 -6.244449,0 -11.7376892,-3.1022 -15.0289242,-7.8559 -2.04219,-2.9496 -3.236581,-6.535 -3.236581,-10.4096 0,-10.1191 8.1464152,-18.2655001 18.2655052,-18.2655001 0,0 0,0 0,0"
         id="path2546" />
      <text
         xml:space="preserve"
         style="font-style:normal;font-variant:normal;font-weight:normal;font-stretch:normal;font-size:6px;line-height:1.25;font-family:'Liberation Sans', Arial, sans-serif;-inkscape-font-specification:'sans-serif Normal';font-variant-ligatures:normal;font-variant-caps:normal;font-variant-numeric:normal;font-variant-east-asian:normal;fill:#000000;fill-opacity:1;stroke:none;stroke-width:1px;stroke-linecap:butt;stroke-linejoin:miter;stroke-opacity:1"
         x="-0.59277618"
         y="47.882343"
         id="text838"><tspan
           sodipodi:role="line"
           id="tspan842"
           x="-0.59277618"
           y="47.882343">Exponent: 1.0</tspan><tspan
           sodipodi:role="line"
           x="-0.59277618"
           y="55.478275"
           id="tspan840">Interpolation Steps: 6</tspan><tspan
           sodipodi:role="line"
           x="-0.59277618"
           y="63.074207"
           id="tspan848">Interpolation Method: Split paths into segments of equal lengths</tspan><tspan
           sodipodi:role="line"
           x="-0.59277618"
           y="70.670143"
           id="tspan2">Duplicate Endpaths: unchecked   </tspan><tspan
           sodipodi:role="line"
           x="-0.59277618"
           y="78.266075"
           id="tspan3">Interpolate Style: unchecked  </tspan><tspan
           sodipodi:role="line"
           x="-0.59277618"
           y="85.862007"
           id="tspan4">Use Z-order: unchecked</tspan></text>
    </g>
  </g>
</svg>
