<?xml version="1.0" encoding="UTF-8" standalone="no"?>
<svg
   xmlns:dc="http://purl.org/dc/elements/1.1/"
   xmlns:cc="http://creativecommons.org/ns#"
   xmlns:rdf="http://www.w3.org/1999/02/22-rdf-syntax-ns#"
   xmlns:svg="http://www.w3.org/2000/svg"
   xmlns="http://www.w3.org/2000/svg"
   xmlns:xlink="http://www.w3.org/1999/xlink"
   xmlns:sodipodi="http://sodipodi.sourceforge.net/DTD/sodipodi-0.dtd"
   xmlns:inkscape="http://www.inkscape.org/namespaces/inkscape"
   width="300"
   height="155"
   id="svg3608"
   viewBox="0 0 300 155"
   sodipodi:version="0.32"
   inkscape:version="1.0beta1 (a4ee55bc41, 2019-11-15)"
   sodipodi:docname="tips-f03.svg"
   version="1.1">
  <defs
     id="defs3" />
  <sodipodi:namedview
     inkscape:window-maximized="0"
     inkscape:window-y="27"
     inkscape:window-x="54"
     inkscape:window-height="1053"
     inkscape:window-width="1866"
     inkscape:guide-bbox="true"
     showguides="true"
     units="px"
     showgrid="false"
     inkscape:document-rotation="0"
     inkscape:current-layer="layer1"
     inkscape:document-units="px"
     inkscape:cy="77.5"
     inkscape:cx="160"
     inkscape:zoom="1.4"
     inkscape:pageshadow="2"
     inkscape:pageopacity="0.0"
     borderopacity="1.0"
     bordercolor="#666666"
     pagecolor="#ffffff"
     id="base"
     inkscape:lockguides="true" />
  <metadata
     id="metadata4">
    <rdf:RDF>
      <cc:Work
         rdf:about="">
        <dc:format>image/svg+xml</dc:format>
        <dc:type
           rdf:resource="http://purl.org/dc/dcmitype/StillImage" />
        <dc:title />
      </cc:Work>
    </rdf:RDF>
  </metadata>
  <g
     inkscape:label="Layer 1"
     inkscape:groupmode="layer"
     id="layer1">
    <g
       transform="matrix(0.63768,0,0,0.63768,48.60902,-470.9209)"
       inkscape:tile-cy="859.24904"
       inkscape:tile-cx="158.99982"
       inkscape:tile-h="7.3333200"
       inkscape:tile-w="87.999840"
       id="g1768">
      <path
         id="path1592"
         d="m 210.17493,859.91943 c 4.53304,-2.08276 15.80441,-3.79797 15.80441,-0.12252 0,3.67544 -15.80441,0.12252 -15.80441,0.12252 z"
         style="color:#000000;display:inline;overflow:visible;visibility:visible;fill:#000000;fill-opacity:1;fill-rule:evenodd;stroke:none;stroke-width:0.103957;stroke-linecap:butt;stroke-linejoin:miter;stroke-miterlimit:4;stroke-dashoffset:0;stroke-opacity:1;marker:none;marker-start:none;marker-mid:none;marker-end:none"
         inkscape:connector-curvature="0" />
      <rect
         y="853.5"
         x="90"
         height="11.5"
         width="138"
         id="rect1680"
         style="color:#000000;display:inline;overflow:visible;visibility:visible;opacity:0;fill:#000000;fill-opacity:1;fill-rule:evenodd;stroke:none;stroke-width:0.25px;stroke-linecap:butt;stroke-linejoin:miter;stroke-miterlimit:4;stroke-dashoffset:0;stroke-opacity:1;marker:none;marker-start:none;marker-mid:none;marker-end:none" />
    </g>
    <use
       height="1052.3622"
       width="744.09448"
       id="use5827"
       transform="matrix(1.582388,-0.949047,0.949047,1.582388,-160.44045,97.51038)"
       xlink:href="#g1768"
       inkscape:tiled-clone-of="#g1768"
       y="0"
       x="0" />
    <use
       height="1052.3622"
       width="744.09448"
       id="use5828"
       transform="matrix(0.158025,-0.1467,0.1467,0.158025,114.99969,86.842257)"
       xlink:href="#g1768"
       inkscape:tiled-clone-of="#g1768"
       y="0"
       x="0" />
    <use
       height="1052.3622"
       width="744.09448"
       id="use5829"
       transform="matrix(0.381205,-0.310377,0.310377,0.381205,68.918503,94.207706)"
       xlink:href="#g1768"
       inkscape:tiled-clone-of="#g1768"
       y="0"
       x="0" />
    <use
       height="1052.3622"
       width="744.09448"
       id="use5830"
       transform="matrix(0.916096,-0.772439,0.772439,0.916096,-46.896099,122.32728)"
       xlink:href="#g1768"
       inkscape:tiled-clone-of="#g1768"
       y="0"
       x="0" />
    <use
       height="1052.3622"
       width="744.09448"
       id="use5831"
       transform="matrix(0.271176,1.020398,-1.020398,0.271176,187.9,-96.936344)"
       xlink:href="#g1768"
       inkscape:tiled-clone-of="#g1768"
       y="0"
       x="0" />
    <use
       height="1052.3622"
       width="744.09448"
       id="use5832"
       transform="matrix(0.05449488,1.117922,-1.117922,0.05449488,227.91266,-94.879259)"
       xlink:href="#g1768"
       inkscape:tiled-clone-of="#g1768"
       y="0"
       x="0" />
    <use
       height="1052.3622"
       width="744.09448"
       id="use5833"
       transform="matrix(1.301172,-0.342483,0.342483,1.301172,-71.548678,28.180873)"
       xlink:href="#g1768"
       inkscape:tiled-clone-of="#g1768"
       y="0"
       x="0" />
    <use
       height="1052.3622"
       width="744.09448"
       id="use5834"
       transform="matrix(0.437831,-0.0570609,0.0570609,0.437831,79.931439,51.849478)"
       xlink:href="#g1768"
       inkscape:tiled-clone-of="#g1768"
       y="0"
       x="0" />
    <use
       height="1052.3622"
       width="744.09448"
       id="use5835"
       transform="matrix(0.306813,0.0994089,-0.0994089,0.306813,111.63328,38.46829)"
       xlink:href="#g1768"
       inkscape:tiled-clone-of="#g1768"
       y="0"
       x="0" />
    <use
       height="1052.3622"
       width="744.09448"
       id="use5836"
       transform="matrix(-0.03070037,0.733791,-0.733791,-0.03070037,211.11083,-30.698976)"
       xlink:href="#g1768"
       inkscape:tiled-clone-of="#g1768"
       y="0"
       x="0" />
    <use
       height="1052.3622"
       width="744.09448"
       id="use5837"
       transform="matrix(0.587705,1.503905,-1.503905,0.587705,177.65368,-193.83654)"
       xlink:href="#g1768"
       inkscape:tiled-clone-of="#g1768"
       y="0"
       x="0" />
    <use
       height="1052.3622"
       width="744.09448"
       id="use5838"
       transform="matrix(-0.06358936,0.241746,-0.241746,-0.06358936,178.15432,45.640477)"
       xlink:href="#g1768"
       inkscape:tiled-clone-of="#g1768"
       y="0"
       x="0" />
    <use
       height="1052.3622"
       width="744.09448"
       id="use5839"
       transform="matrix(-0.112789,0.480395,-0.480395,-0.112789,203.91184,13.631651)"
       xlink:href="#g1768"
       inkscape:tiled-clone-of="#g1768"
       y="0"
       x="0" />
    <use
       height="1052.3622"
       width="744.09448"
       id="use5840"
       transform="matrix(0.470476,0.344786,-0.344786,0.470476,105.97883,-10.941186)"
       xlink:href="#g1768"
       inkscape:tiled-clone-of="#g1768"
       y="0"
       x="0" />
    <use
       height="1052.3622"
       width="744.09448"
       id="use5841"
       transform="matrix(0.903283,1.297602,-1.297602,0.903283,114.43002,-187.19314)"
       xlink:href="#g1768"
       inkscape:tiled-clone-of="#g1768"
       y="0"
       x="0" />
    <use
       height="1052.3622"
       width="744.09448"
       id="use5842"
       transform="matrix(1.638722,0.413477,-0.413477,1.638722,-63.968656,-111.20718)"
       xlink:href="#g1768"
       inkscape:tiled-clone-of="#g1768"
       y="0"
       x="0" />
    <use
       height="1052.3622"
       width="744.09448"
       id="use5843"
       transform="matrix(1.375364,0.841378,-0.841378,1.375364,8.4862662,-155.11183)"
       xlink:href="#g1768"
       inkscape:tiled-clone-of="#g1768"
       y="0"
       x="0" />
    <use
       height="1052.3622"
       width="744.09448"
       id="use5844"
       transform="matrix(0.372431,1.257953,-1.257953,0.372431,191.00566,-140.36639)"
       xlink:href="#g1768"
       inkscape:tiled-clone-of="#g1768"
       y="0"
       x="0" />
    <use
       height="1052.3622"
       width="744.09448"
       id="use5845"
       transform="matrix(0.974189,0.807369,-0.807369,0.974189,66.04324,-119.11812)"
       xlink:href="#g1768"
       inkscape:tiled-clone-of="#g1768"
       y="0"
       x="0" />
    <use
       height="1052.3622"
       width="744.09448"
       id="use5846"
       transform="matrix(-0.731938,1.633265,-1.633265,-0.731938,385.56127,-111.62124)"
       xlink:href="#g1768"
       inkscape:tiled-clone-of="#g1768"
       y="0"
       x="0" />
    <use
       height="1052.3622"
       width="744.09448"
       id="use5847"
       transform="matrix(0.673132,0.518622,-0.518622,0.673132,88.967253,-52.622608)"
       xlink:href="#g1768"
       inkscape:tiled-clone-of="#g1768"
       y="0"
       x="0" />
    <use
       height="1052.3622"
       width="744.09448"
       id="use5848"
       transform="matrix(0.02547028,0.99819,-0.99819,0.02547028,223.04504,-74.684249)"
       xlink:href="#g1768"
       inkscape:tiled-clone-of="#g1768"
       y="0"
       x="0" />
    <use
       height="1052.3622"
       width="744.09448"
       id="use5849"
       transform="matrix(-0.03605237,0.532086,-0.532086,-0.03605237,196.38151,-0.03102413)"
       xlink:href="#g1768"
       inkscape:tiled-clone-of="#g1768"
       y="0"
       x="0" />
    <use
       height="1052.3622"
       width="744.09448"
       id="use5850"
       transform="matrix(-1.09029,0.485825,-0.485825,-1.09029,350.95476,88.08971)"
       xlink:href="#g1768"
       inkscape:tiled-clone-of="#g1768"
       y="0"
       x="0" />
    <use
       height="1052.3622"
       width="744.09448"
       id="use5851"
       transform="matrix(-0.698354,0.189739,-0.189739,-0.698354,269.36394,102.32141)"
       xlink:href="#g1768"
       inkscape:tiled-clone-of="#g1768"
       y="0"
       x="0" />
    <use
       height="1052.3622"
       width="744.09448"
       id="use5852"
       transform="matrix(0.05885208,0.812223,-0.812223,0.05885208,203.71763,-49.359803)"
       xlink:href="#g1768"
       inkscape:tiled-clone-of="#g1768"
       y="0"
       x="0" />
    <use
       height="1052.3622"
       width="744.09448"
       id="use5853"
       transform="matrix(0.726872,1.565645,-1.565645,0.726872,161.5324,-213.8142)"
       xlink:href="#g1768"
       inkscape:tiled-clone-of="#g1768"
       y="0"
       x="0" />
    <use
       height="1052.3622"
       width="744.09448"
       id="use5854"
       transform="matrix(-0.93737,0.984031,-0.984031,-0.93737,366.38149,1.5840644)"
       xlink:href="#g1768"
       inkscape:tiled-clone-of="#g1768"
       y="0"
       x="0" />
    <use
       height="1052.3622"
       width="744.09448"
       id="use5855"
       transform="matrix(-1.744032,-0.332291,0.332291,-1.744032,386.01723,261.14961)"
       xlink:href="#g1768"
       inkscape:tiled-clone-of="#g1768"
       y="0"
       x="0" />
    <use
       height="1052.3622"
       width="744.09448"
       id="use5856"
       transform="matrix(0.22296,1.144285,-1.144285,0.22296,204.67249,-111.8068)"
       xlink:href="#g1768"
       inkscape:tiled-clone-of="#g1768"
       y="0"
       x="0" />
    <use
       height="1052.3622"
       width="744.09448"
       id="use5857"
       transform="matrix(-0.343933,1.153051,-1.153051,-0.343933,290.38149,-69.46713)"
       xlink:href="#g1768"
       inkscape:tiled-clone-of="#g1768"
       y="0"
       x="0" />
    <use
       height="1052.3622"
       width="744.09448"
       id="use5858"
       transform="matrix(-0.184014,0.803951,-0.803951,-0.184014,239.51073,-29.416638)"
       xlink:href="#g1768"
       inkscape:tiled-clone-of="#g1768"
       y="0"
       x="0" />
    <use
       height="1052.3622"
       width="744.09448"
       id="use5859"
       transform="matrix(-0.657759,0.630998,-0.630998,-0.657759,297.25458,33.00674)"
       xlink:href="#g1768"
       inkscape:tiled-clone-of="#g1768"
       y="0"
       x="0" />
    <use
       height="1052.3622"
       width="744.09448"
       id="use5860"
       transform="matrix(-1.178407,0.00800526,-0.00800526,-1.178407,327.37787,166.54954)"
       xlink:href="#g1768"
       inkscape:tiled-clone-of="#g1768"
       y="0"
       x="0" />
    <use
       height="1052.3622"
       width="744.09448"
       id="use5861"
       transform="matrix(-1.188778,0.960756,-0.960756,-1.188778,402.30066,24.434357)"
       xlink:href="#g1768"
       inkscape:tiled-clone-of="#g1768"
       y="0"
       x="0" />
    <use
       height="1052.3622"
       width="744.09448"
       id="use5862"
       transform="matrix(-0.580462,-0.03074334,0.03074334,-0.580462,234.70219,126.31629)"
       xlink:href="#g1768"
       inkscape:tiled-clone-of="#g1768"
       y="0"
       x="0" />
    <use
       height="1052.3622"
       width="744.09448"
       id="use5863"
       transform="matrix(-0.867001,0.42505,-0.42505,-0.867001,312.78171,80.012104)"
       xlink:href="#g1768"
       inkscape:tiled-clone-of="#g1768"
       y="0"
       x="0" />
    <use
       height="1052.3622"
       width="744.09448"
       id="use5864"
       transform="matrix(-0.700823,0.100133,-0.100133,-0.700823,262.8341,115.9526)"
       xlink:href="#g1768"
       inkscape:tiled-clone-of="#g1768"
       y="0"
       x="0" />
    <use
       height="1052.3622"
       width="744.09448"
       id="use5865"
       transform="matrix(-1.763055,-0.226403,0.226403,-1.763055,397.02419,246.73191)"
       xlink:href="#g1768"
       inkscape:tiled-clone-of="#g1768"
       y="0"
       x="0" />
    <use
       height="1052.3622"
       width="744.09448"
       id="use5866"
       transform="matrix(-0.98245,-1.091297,1.091297,-0.98245,213.33168,316.35532)"
       xlink:href="#g1768"
       inkscape:tiled-clone-of="#g1768"
       y="0"
       x="0" />
    <use
       height="1052.3622"
       width="744.09448"
       id="use5867"
       transform="matrix(-0.112597,-0.1117,0.1117,-0.112597,158.28812,102.43154)"
       xlink:href="#g1768"
       inkscape:tiled-clone-of="#g1768"
       y="0"
       x="0" />
    <use
       height="1052.3622"
       width="744.09448"
       id="use5868"
       transform="matrix(-0.465116,-0.231915,0.231915,-0.465116,201.90884,147.60954)"
       xlink:href="#g1768"
       inkscape:tiled-clone-of="#g1768"
       y="0"
       x="0" />
    <use
       height="1052.3622"
       width="744.09448"
       id="use5869"
       transform="matrix(-1.344854,0.03164347,-0.03164347,-1.344854,354.16514,175.82021)"
       xlink:href="#g1768"
       inkscape:tiled-clone-of="#g1768"
       y="0"
       x="0" />
    <use
       height="1052.3622"
       width="744.09448"
       id="use5870"
       transform="matrix(-0.841796,0.711101,-0.711101,-0.841796,331.02805,35.163912)"
       xlink:href="#g1768"
       inkscape:tiled-clone-of="#g1768"
       y="0"
       x="0" />
    <use
       height="1052.3622"
       width="744.09448"
       id="use5871"
       transform="matrix(-0.406734,-1.716231,1.716231,-0.406734,78.850214,365.76109)"
       xlink:href="#g1768"
       inkscape:tiled-clone-of="#g1768"
       y="0"
       x="0" />
    <use
       height="1052.3622"
       width="744.09448"
       id="use5872"
       transform="matrix(-0.512726,-1.119051,1.119051,-0.512726,140.73557,284.34602)"
       xlink:href="#g1768"
       inkscape:tiled-clone-of="#g1768"
       y="0"
       x="0" />
    <use
       height="1052.3622"
       width="744.09448"
       id="use5873"
       transform="matrix(-1.009778,0.397051,-0.397051,-1.009778,332.0421,95.206752)"
       xlink:href="#g1768"
       inkscape:tiled-clone-of="#g1768"
       y="0"
       x="0" />
    <use
       height="1052.3622"
       width="744.09448"
       id="use5874"
       transform="matrix(-0.342373,-1.254425,1.254425,-0.342373,104.75803,291.53418)"
       xlink:href="#g1768"
       inkscape:tiled-clone-of="#g1768"
       y="0"
       x="0" />
    <use
       height="1052.3622"
       width="744.09448"
       id="use5875"
       transform="matrix(-1.321413,-0.05632474,0.05632474,-1.321413,343.87489,187.21009)"
       xlink:href="#g1768"
       inkscape:tiled-clone-of="#g1768"
       y="0"
       x="0" />
    <use
       height="1052.3622"
       width="744.09448"
       id="use5876"
       transform="matrix(0.08124399,-1.492381,1.492381,0.08124399,22.89168,294.60727)"
       xlink:href="#g1768"
       inkscape:tiled-clone-of="#g1768"
       y="0"
       x="0" />
    <use
       height="1052.3622"
       width="744.09448"
       id="use5877"
       transform="matrix(-0.735465,-0.521409,0.521409,-0.735465,220.16867,211.85147)"
       xlink:href="#g1768"
       inkscape:tiled-clone-of="#g1768"
       y="0"
       x="0" />
    <use
       height="1052.3622"
       width="744.09448"
       id="use5878"
       transform="matrix(-0.826712,-0.390986,0.390986,-0.826712,243.89882,199.31487)"
       xlink:href="#g1768"
       inkscape:tiled-clone-of="#g1768"
       y="0"
       x="0" />
    <use
       height="1052.3622"
       width="744.09448"
       id="use5879"
       transform="matrix(0.09504403,-1.201923,1.201923,0.09504403,43.189015,249.97524)"
       xlink:href="#g1768"
       inkscape:tiled-clone-of="#g1768"
       y="0"
       x="0" />
    <use
       height="1052.3622"
       width="744.09448"
       id="use5880"
       transform="matrix(-0.407521,-0.948369,0.948369,-0.407521,138.09868,250.64196)"
       xlink:href="#g1768"
       inkscape:tiled-clone-of="#g1768"
       y="0"
       x="0" />
    <use
       height="1052.3622"
       width="744.09448"
       id="use5881"
       transform="matrix(0.237366,-0.784455,0.784455,0.237366,53.988088,176.39536)"
       xlink:href="#g1768"
       inkscape:tiled-clone-of="#g1768"
       y="0"
       x="0" />
    <use
       height="1052.3622"
       width="744.09448"
       id="use5882"
       transform="matrix(0.297228,-0.331596,0.331596,0.297228,79.880757,103.85656)"
       xlink:href="#g1768"
       inkscape:tiled-clone-of="#g1768"
       y="0"
       x="0" />
    <use
       height="1052.3622"
       width="744.09448"
       id="use5883"
       transform="matrix(-0.0708973,-0.560229,0.560229,-0.0708973,117.49401,166.4998)"
       xlink:href="#g1768"
       inkscape:tiled-clone-of="#g1768"
       y="0"
       x="0" />
    <use
       height="1052.3622"
       width="744.09448"
       id="use5884"
       transform="matrix(-0.00928473,-0.591196,0.591196,-0.00928473,105.86705,166.40025)"
       xlink:href="#g1768"
       inkscape:tiled-clone-of="#g1768"
       y="0"
       x="0" />
    <use
       height="1052.3622"
       width="744.09448"
       id="use5885"
       transform="matrix(0.647489,-0.895367,0.895367,0.647489,-16.071356,161.45022)"
       xlink:href="#g1768"
       inkscape:tiled-clone-of="#g1768"
       y="0"
       x="0" />
    <use
       height="1052.3622"
       width="744.09448"
       id="use5886"
       transform="matrix(0.206174,-0.655204,0.655204,0.206174,68.61982,159.40945)"
       xlink:href="#g1768"
       inkscape:tiled-clone-of="#g1768"
       y="0"
       x="0" />
    <use
       height="1052.3622"
       width="744.09448"
       id="use5887"
       transform="matrix(-0.228684,-1.07409,1.07409,-0.228684,101.59162,255.72963)"
       xlink:href="#g1768"
       inkscape:tiled-clone-of="#g1768"
       y="0"
       x="0" />
    <use
       height="1052.3622"
       width="744.09448"
       id="use5888"
       transform="matrix(-1.157023,-1.395573,1.395573,-1.157023,216.08704,375.43825)"
       xlink:href="#g1768"
       inkscape:tiled-clone-of="#g1768"
       y="0"
       x="0" />
    <use
       height="1052.3622"
       width="744.09448"
       id="use5889"
       transform="matrix(-1.029056,-1.277949,1.277949,-1.029056,205.94957,347.94115)"
       xlink:href="#g1768"
       inkscape:tiled-clone-of="#g1768"
       y="0"
       x="0" />
    <use
       height="1052.3622"
       width="744.09448"
       id="use5890"
       transform="matrix(0.838138,-1.332274,1.332274,0.838138,-78.313166,212.30584)"
       xlink:href="#g1768"
       inkscape:tiled-clone-of="#g1768"
       y="0"
       x="0" />
    <use
       height="1052.3622"
       width="744.09448"
       id="use5891"
       transform="matrix(-0.09741253,-1.150852,1.150852,-0.09741253,75.990019,257.13504)"
       xlink:href="#g1768"
       inkscape:tiled-clone-of="#g1768"
       y="0"
       x="0" />
    <use
       height="1052.3622"
       width="744.09448"
       id="use5892"
       transform="matrix(-0.214987,-0.730718,0.730718,-0.214987,125.97845,203.16913)"
       xlink:href="#g1768"
       inkscape:tiled-clone-of="#g1768"
       y="0"
       x="0" />
    <use
       height="1052.3622"
       width="744.09448"
       id="use5893"
       transform="matrix(1.688294,-0.170486,0.170486,1.688294,-116.37255,-27.429279)"
       xlink:href="#g1768"
       inkscape:tiled-clone-of="#g1768"
       y="0"
       x="0" />
    <use
       height="1052.3622"
       width="744.09448"
       id="use5894"
       transform="matrix(0.553777,-0.203849,0.203849,0.553777,51.235666,64.938924)"
       xlink:href="#g1768"
       inkscape:tiled-clone-of="#g1768"
       y="0"
       x="0" />
    <use
       height="1052.3622"
       width="744.09448"
       id="use5895"
       transform="matrix(1.162667,-0.637705,0.637705,1.162667,-73.507319,83.129959)"
       xlink:href="#g1768"
       inkscape:tiled-clone-of="#g1768"
       y="0"
       x="0" />
    <use
       height="1052.3622"
       width="744.09448"
       id="use5896"
       transform="matrix(1.521722,-0.574611,0.574611,1.521722,-122.50661,46.016175)"
       xlink:href="#g1768"
       inkscape:tiled-clone-of="#g1768"
       y="0"
       x="0" />
    <use
       height="1052.3622"
       width="744.09448"
       id="use5897"
       transform="matrix(0.546248,-0.904563,0.904563,0.546248,-1.593783,170.62598)"
       xlink:href="#g1768"
       inkscape:tiled-clone-of="#g1768"
       y="0"
       x="0" />
  </g>
</svg>
